{
    "RestaurantName": "Ravintola Ylistö",
    "RestaurantUrl": "https://www.semma.fi/ravintolat2/ylistonrinne/ravintola-ylisto/",
    "PriceHeader": null,
    "Footer": "Vegaani ja gluteeniton vaihtoehto saatavilla päivittäin! Kysy lisätietoja henkilökunnaltamme.",
    "MenusForDays": [
      {
        "Date": "2019-03-23T00:00:00+01:00",
        "LunchTime": null,
        "SetMenus": []
      },
      {
        "Date": "2019-03-24T00:00:00+01:00",
        "LunchTime": null,
        "SetMenus": []
      }
    ],
    "ErrorText": null
  }