{
    "RestaurantName": "Aimo",
    "RestaurantUrl": "https://www.fazerfoodco.fi/ravintolat/Ravintolat-kaupungeittain/jyvaskyla/aimo/",
    "PriceHeader": null,
    "Footer": null,
    "MenusForDays": [
      {
        "Date": "2019-03-18T00:00:00+01:00",
        "LunchTime": "klo 10.30 - 13.30",
        "SetMenus": [
          {
            "SortOrder": 0,
            "Name": null,
            "Price": null,
            "Components": [
              "Herkkusienipastaa (A ,L ,VS)"
            ]
          },
          {
            "SortOrder": 0,
            "Name": null,
            "Price": "9,40",
            "Components": [
              "Porsasstroganoffia (* ,A ,G ,L ,VS)",
              "Höyrytettyä riisiä (G ,L ,M ,Veg)"
            ]
          },
          {
            "SortOrder": 0,
            "Name": null,
            "Price": "8,50",
            "Components": [
              "Mausteista broileri-kookoskermakeittoa (* ,A ,G ,L ,VS)"
            ]
          },
          {
            "SortOrder": 0,
            "Name": null,
            "Price": null,
            "Components": [
              "Vadelmajogurttia (A ,G ,L)",
              "Paahdettua hunaja-kauramysliä (A ,L ,M)"
            ]
          },
          {
            "SortOrder": 0,
            "Name": null,
            "Price": null,
            "Components": []
          }
        ]
      },
      {
        "Date": "2019-03-19T00:00:00+01:00",
        "LunchTime": "klo 10.30 - 13.30",
        "SetMenus": [
          {
            "SortOrder": 0,
            "Name": null,
            "Price": null,
            "Components": [
              "Luomusoijatäytteinen pitaleipä (A ,L ,M ,Veg ,VS)"
            ]
          },
          {
            "SortOrder": 0,
            "Name": null,
            "Price": "9,40",
            "Components": [
              "Murg Makhani- broileria tomaatti-kermakastikkeessa (A ,G ,L ,VS)",
              "Villiriisiä (G ,L ,M ,Veg)"
            ]
          },
          {
            "SortOrder": 0,
            "Name": null,
            "Price": "8,50",
            "Components": [
              "Kirkas kirjolohi-seitikeitto (* ,A ,G ,L ,M)"
            ]
          },
          {
            "SortOrder": 0,
            "Name": null,
            "Price": null,
            "Components": [
              "Suklaapuuroa (A)"
            ]
          },
          {
            "SortOrder": 0,
            "Name": null,
            "Price": null,
            "Components": []
          }
        ]
      },
      {
        "Date": "2019-03-20T00:00:00+01:00",
        "LunchTime": "klo 10.30 - 13.30",
        "SetMenus": [
          {
            "SortOrder": 0,
            "Name": null,
            "Price": "9,40",
            "Components": [
              "Maissi-kvinoapihvejä (* ,A ,L ,M ,VS)",
              "Yrttikastiketta (A ,G ,L ,M)",
              "Vihannescouscousia (A ,L ,M)"
            ]
          },
          {
            "SortOrder": 0,
            "Name": null,
            "Price": "7,20",
            "Components": [
              "Pinaattikeittoa ja kananmuna (A)"
            ]
          },
          {
            "SortOrder": 0,
            "Name": null,
            "Price": "9,40",
            "Components": [
              "Metsästäjänleike (A ,L)",
              "Leipurinperunaa (* ,G ,L ,M)"
            ]
          },
          {
            "SortOrder": 0,
            "Name": null,
            "Price": null,
            "Components": [
              "Ruusunmarja-banaanikiisseliä (G ,L ,M ,Veg)",
              "Kanelikermavaahtoa (A ,G ,L)"
            ]
          },
          {
            "SortOrder": 0,
            "Name": null,
            "Price": null,
            "Components": []
          }
        ]
      },
      {
        "Date": "2019-03-21T00:00:00+01:00",
        "LunchTime": "klo 10.30 - 13.30",
        "SetMenus": [
          {
            "SortOrder": 0,
            "Name": null,
            "Price": "7,20",
            "Components": [
              "Mausteista kukkakaali-herkkusienikeittoa (* ,A ,G ,L ,M ,Veg ,VS)"
            ]
          },
          {
            "SortOrder": 0,
            "Name": null,
            "Price": "9,40",
            "Components": [
              "Riistapyöryköitä (A ,L ,M)",
              "Punaviinikastiketta (A ,G ,L ,M ,VS)",
              "Persiljaperunoita (* ,G ,L ,M ,Veg)"
            ]
          },
          {
            "SortOrder": 0,
            "Name": null,
            "Price": "8,50",
            "Components": [
              "Hernekeittoa (* ,A ,G ,L ,M)"
            ]
          },
          {
            "SortOrder": 0,
            "Name": null,
            "Price": null,
            "Components": [
              "Hilloa (G ,L ,M ,Veg)",
              "Pannukakkua (A ,L)",
              "Vaniljakermavaahtoa (A ,G ,L)"
            ]
          },
          {
            "SortOrder": 0,
            "Name": null,
            "Price": null,
            "Components": []
          }
        ]
      },
      {
        "Date": "2019-03-22T00:00:00+01:00",
        "LunchTime": "klo 10.30 - 13.30",
        "SetMenus": [
          {
            "SortOrder": 0,
            "Name": null,
            "Price": "7,20",
            "Components": [
              "Juuressosekeittoa (A ,G ,L)",
              "Chilipaahdettuja leipäkuutioita (A ,L ,M ,Veg)"
            ]
          },
          {
            "SortOrder": 0,
            "Name": null,
            "Price": "9,40",
            "Components": [
              "Tonnikalalasagnea (A ,VS)"
            ]
          },
          {
            "SortOrder": 0,
            "Name": null,
            "Price": "9,40",
            "Components": [
              "Kievin kanaa (A ,L ,VS)",
              "Tomaattimajoneesia (A ,G ,L ,M)",
              "Yrttiriisiä (G ,L ,M ,Veg)"
            ]
          },
          {
            "SortOrder": 0,
            "Name": null,
            "Price": null,
            "Components": [
              "Toscapiirakkaa (A ,L)"
            ]
          },
          {
            "SortOrder": 0,
            "Name": null,
            "Price": null,
            "Components": []
          }
        ]
      },
      {
        "Date": "2019-03-23T00:00:00+01:00",
        "LunchTime": null,
        "SetMenus": []
      },
      {
        "Date": "2019-03-24T00:00:00+01:00",
        "LunchTime": null,
        "SetMenus": []
      }
    ],
    "ErrorText": null
  }